%YAML 1.1
%TAG !u! tag:unity3d.com,2011:
--- !u!114 &11400000
MonoBehaviour:
  m_ObjectHideFlags: 0
  m_CorrespondingSourceObject: {fileID: 0}
  m_PrefabInstance: {fileID: 0}
  m_PrefabAsset: {fileID: 0}
  m_GameObject: {fileID: 0}
  m_Enabled: 1
  m_EditorHideFlags: 0
  m_Script: {fileID: 11500000, guid: 1beac6af0eab64ab788ba110ebf27b2f, type: 3}
  m_Name: Developer
  m_EditorClassIdentifier: 
  _displayName: Developer
  _recipe:
  - {fileID: 11400000, guid: ae7e3da7fb0bc42efb256ddcdfcd0450, type: 2}
  - {fileID: 11400000, guid: 68072215425724cea8858ebed96bb030, type: 2}
