%YAML 1.1
%TAG !u! tag:unity3d.com,2011:
--- !u!114 &11400000
MonoBehaviour:
  m_ObjectHideFlags: 0
  m_CorrespondingSourceObject: {fileID: 0}
  m_PrefabInstance: {fileID: 0}
  m_PrefabAsset: {fileID: 0}
  m_GameObject: {fileID: 0}
  m_Enabled: 1
  m_EditorHideFlags: 0
  m_Script: {fileID: 11500000, guid: 38520d6de9b47459aab3bcd3e189bb71, type: 3}
  m_Name: Microphone
  m_EditorClassIdentifier: 
  _icon: {fileID: 21300000, guid: c39adbf7af1154a218546d0442376d45, type: 3}
