{
    "name": "GDTVSoulCooked.UI",
    "rootNamespace": "GDTVSoulCooked.UI",
    "references": [
        "GUID:6055be8ebefd69e48b49212b09b47b2f",
        "GUID:ebfdf38157ce24012a68e3a04ca3722c",
        "GUID:40d308b8650fc47ccbbed99f5ef4f24f"
    ],
    "includePlatforms": [],
    "excludePlatforms": [],
    "allowUnsafeCode": false,
    "overrideReferences": false,
    "precompiledReferences": [],
    "autoReferenced": true,
    "defineConstraints": [],
    "versionDefines": [],
    "noEngineReferences": false
}