{
    "name": "GDTVSoulCooked.Control",
    "rootNamespace": "GDTVSoulCooked.Control",
    "references": [
        "GUID:75469ad4d38634e559750d17036d5f7c",
        "GUID:40d308b8650fc47ccbbed99f5ef4f24f",
        "GUID:4ccb58a5903df4bb7a6542de00321a83",
        "GUID:e73b98e4052d1414a82fcbc71ce97b4b",
        "GUID:ebfdf38157ce24012a68e3a04ca3722c"
    ],
    "includePlatforms": [],
    "excludePlatforms": [],
    "allowUnsafeCode": false,
    "overrideReferences": false,
    "precompiledReferences": [],
    "autoReferenced": true,
    "defineConstraints": [],
    "versionDefines": [],
    "noEngineReferences": false
}